com\web\controller\UserController.class
com\web\service\impl\OrderDetailImpl.class
com\web\entity\User.class
com\web\convert\ItemsConvert.class
com\web\convert\UserConvert.class
com\web\controller\PayController.class
com\web\service\impl\OrderImpl.class
com\web\entity\Order.class
com\web\RestApiWebBanHangSpringBootApplication.class
com\web\dto\UserDtoIn.class
com\web\repository\ItemsRepository.class
com\web\config\AppConfig.class
com\web\entity\composite_key\OrderDetail.class
com\web\service\OrderDetailService.class
com\web\service\ItemsService.class
com\web\repository\OrderRepository.class
com\web\service\OrderService.class
com\web\service\impl\UserImpl.class
com\web\service\UserService.class
com\web\controller\OrderDetailController.class
com\web\service\impl\ItemsImpl.class
com\web\convert\OrderConvert.class
com\web\dto\ItemsDtoIn.class
com\web\dto\OrderDetailRatingKeyDto.class
com\web\repository\OrderDetailRepository.class
com\web\convert\OrderDetailConvert.class
com\web\dto\OrderDtoIn.class
com\web\entity\AuditTable.class
com\web\repository\UserRepository.class
com\web\controller\OrderController.class
com\web\entity\Items.class
com\web\config\AppConfig$AuditorAwareImpl.class
com\web\controller\ItemsController.class
com\web\dto\OrderDetailDtoIn.class
com\web\entity\composite_key\OrderDetailRatingKey.class
