D:\vscjava\shop_restful\src\main\java\com\web\entity\Order.java
D:\vscjava\shop_restful\src\main\java\com\web\entity\AuditTable.java
D:\vscjava\shop_restful\src\main\java\com\web\service\impl\OrderImpl.java
D:\vscjava\shop_restful\src\main\java\com\web\entity\Items.java
D:\vscjava\shop_restful\src\main\java\com\web\controller\OrderDetailController.java
D:\vscjava\shop_restful\src\main\java\com\web\repository\OrderRepository.java
D:\vscjava\shop_restful\src\main\java\com\web\service\impl\OrderDetailImpl.java
D:\vscjava\shop_restful\src\main\java\com\web\service\impl\UserImpl.java
D:\vscjava\shop_restful\src\main\java\com\web\service\UserService.java
D:\vscjava\shop_restful\src\main\java\com\web\dto\ItemsDtoIn.java
D:\vscjava\shop_restful\src\main\java\com\web\entity\User.java
D:\vscjava\shop_restful\src\main\java\com\web\convert\UserConvert.java
D:\vscjava\shop_restful\src\main\java\com\web\dto\OrderDtoIn.java
D:\vscjava\shop_restful\src\main\java\com\web\controller\UserController.java
D:\vscjava\shop_restful\src\main\java\com\web\dto\UserDtoIn.java
D:\vscjava\shop_restful\src\main\java\com\web\service\ItemsService.java
D:\vscjava\shop_restful\src\main\java\com\web\controller\OrderController.java
D:\vscjava\shop_restful\src\main\java\com\web\entity\composite_key\OrderDetail.java
D:\vscjava\shop_restful\src\main\java\com\web\dto\OrderDetailDtoIn.java
D:\vscjava\shop_restful\src\main\java\com\web\service\OrderDetailService.java
D:\vscjava\shop_restful\src\main\java\com\web\controller\PayController.java
D:\vscjava\shop_restful\src\main\java\com\web\entity\composite_key\OrderDetailRatingKey.java
D:\vscjava\shop_restful\src\main\java\com\web\repository\UserRepository.java
D:\vscjava\shop_restful\src\main\java\com\web\convert\OrderDetailConvert.java
D:\vscjava\shop_restful\src\main\java\com\web\RestApiWebBanHangSpringBootApplication.java
D:\vscjava\shop_restful\src\main\java\com\web\controller\ItemsController.java
D:\vscjava\shop_restful\src\main\java\com\web\dto\OrderDetailRatingKeyDto.java
D:\vscjava\shop_restful\src\main\java\com\web\service\impl\ItemsImpl.java
D:\vscjava\shop_restful\src\main\java\com\web\service\OrderService.java
D:\vscjava\shop_restful\src\main\java\com\web\repository\OrderDetailRepository.java
D:\vscjava\shop_restful\src\main\java\com\web\convert\ItemsConvert.java
D:\vscjava\shop_restful\src\main\java\com\web\convert\OrderConvert.java
D:\vscjava\shop_restful\src\main\java\com\web\config\AppConfig.java
D:\vscjava\shop_restful\src\main\java\com\web\service\items_v1\Audit.java
D:\vscjava\shop_restful\src\main\java\com\web\repository\ItemsRepository.java
